Simulation-Results/Initial/initial.vcd
$comment Generated by Amaranth $end
$date 2023-11-03 02:43:29.486201 $end
$timescale 1 ps $end
$scope module bench $end
$scope module top $end
$var wire 1 ! clk $end
$var wire 1 " rst $end
$var wire 32 # output $end
$var wire 64 $ state $end
$upscope $end
$upscope $end
$enddefinitions $end
#0
$dumpvars
0!
0"
b10011010101111001101101001111101 #
b1001000110100010101100111100010011010101111001101111011110000 $
$end
#500000
1!
b11011110111000111110100100000111 #
b1010000111100000100101011100001011011110111000111100000101111111 $
#1000000
0!
#1500000
1!
b1110101010110011000001101100011 #
b1101100000111111000101010011101110101010110011000010110100010 $
#2000000
0!
#2500000
1!
b11100000101110010100111111101000 #
b100110010000100001011000110011011100000101110010101110011001001 $
#3000000
0!
#3500000
1!
b11010000000011000000010111011 #
b1110001111110000010011101010000011010000000011000011110100100 $
#4000000
0!
#4500000
1!
b11101110011010101001001011001001 #
b1001111110101010001011011010101011101110011010101011010100100011 $
#5000000
0!
#5500000
1!
b10100001011001001000001111100011 #
b1101101001010101111100111101101010100001011001001011010101110110 $
#6000000
0!
#6500000
1!
b11110001110011101110000001011101 #
b100010101000011000000100011100011110001110011101111000100001101 $
#7000000
0!
#7500000
1!
b1001010111011100101100000011100 #
b10111000010011000011111100001001001010111011100101001110011000 $
#8000000
0!
#8500000
1!
b100110001111001011101111001100 #
b1000001100101110100100110001001000100110001111001001101100000111 $
#9000000
0!
#9500000
1!
b10000000010100011000110100111 #
b10110010110110100000100010111100010000000010100011101010001010 $
#10000000
0!
#10500000
1!
b11100110100100000111000110010111 #
b1100000000011000111010000101000011100110100100000100000110010001 $
#11000000
0!
#11500000
1!
b1000100101011101111010000110110 #
b101111101010001101000000001101000100101011101111011011001100 $
#12000000
0!
#12500000
1!
b1011010101000011111010011111 #
b1010011011010000111111000001101100001011010101000001011100101011 $
#13000000
0!
#13500000
1!
b11101100101101001110110100000111 #
b1011101100101110101000011111111101100101101001110100011011110 $
#14000000
0!
#14500000
1!
b11000011111100001000001001111001 #
b100000010110000100000101001110011000011111100001001001001010101 $
#15000000
0!
#15500000
1!
b101000110000100101000001111010 #
b1101010011101001011010011010100100101000110000100110010101000000 $
#16000000
0!
#16500000
1!
b10000000000011100001001001110011 #
b111111111110011001101001110011110000000000011100000110110001111 $
#17000000
0!
#17500000
1!
b11001010110101001101000110101000 #
b1011101101010000000110000111011001010110101001101010001110010 $
#18000000
0!
#18500000
1!
b10110010100011110101000011100100 #
b1101111011110111100110001011001110110010100011110110011101011001 $
#19000000
0!
#19500000
1!
b10001101011101111111011000101 #
b1011000011000100111101110111010100010001101011101101001011110100 $
#20000000
0!
#20500000
1!
b101110011011010001001000001 #
b111001010111001010001111000000101110011011010001000110011 $
#21000000
0!
#21500000
1!
b10001011101100110101101011011101 #
b10111001101101001100100111010010001011101100110101000101000110 $
#22000000
0!
#22500000
1!
b10010000111111001010001101110110 #
b1001111110101111101110000001011010010000111111001000010010011101 $
#23000000
0!
#23500000
1!
b10000100111101011010001101011111 #
b100001011011111010101110101010010000100111101011011001111101000 $
#24000000
0!
#24500000
1!
b11010000111000000000101100000010 #
b1100100001010110110101111000001011010000111000000011100100010111 $
#25000000
0!
#25500000
1!
b11111001100001101111000110000111 #
b101101110100010110111001101111111001100001101111001101011010 $
#26000000
0!
#26500000
1!
b100010001110111101100100011010 #
b1101110011101100110100010101000000100010001110111110111000100001 $
#27000000
0!
#27500000
1!
b11100010001111000100111010011 #
b1101011100111100000011101111000100011100010001111011110000011100 $
#28000000
0!
#28500000
1!
b1010010101000010110100000100101 #
b111100001111011001110110110110101010010101000010111011000111011 $
#29000000
0!
#29500000
1!
b11101011110001111010110001101010 #
b1000101100010000001101010010011011101011110001111000111010101110 $
#30000000
0!
#30500000
1!
b11100100010011100110110100101 #
b1010100100000011100010000110011000011100100010011110011111100101 $
#31000000
0!
#31500000
1!
b1011001111110001110110100101011 #
b1100101011101111101100011111011101011001111110001101111110010000 $
#32000000
0!
#32500000
1!
b11101110111110000011001111111 #
b1110111110000011010001100010010100011101110111110011110110011111 $
#33000000
0!
#33500000
1!
b1000110000100010001001101011 #
b101010010100110010001000000010000001000110000100011011101000010 $
#34000000
0!
#34500000
1!
b10011100010111101111011011000001 #
b110010100000110100001001100010011100010111101111010111101001 $
#35000000
0!
#35500000
1!
b11011100101101000111111001110000 #
b1011000011010001010111100010000011011100101101000101001001000100 $
#36000000
0!
#36500000
1!
b1001001011111011001101111110001 #
b1010001011001010100110000001011101001001011111011011001101000011 $
#37000000
0!
#37500000
1!
b1111000011011010100011000110001 #
b1110010011100001110110011010001111000011011010100000100010110 $
#38000000
0!
#38500000
1!
b10111111101100111101101011111011 #
b1101101011000110110110011110110111111101100111101110000101101 $
#39000000
0!
#39500000
1!
b1100110011100001000001001000101 #
b10100111110111001110000110100101100110011100001000100000111000 $
#40000000
0!
#40500000
1!
b10110101010110110000111010000100 #
b1101011010001110000010011001111110110101010110110011101100100111 $
#41000000
0!
#41500000
1!
b11100011111000100111010111110 #
b11101001010000100111010000111000011100011111000100000000101010 $
#42000000
0!
#42500000
1!
b1101101100001011001100010110010 #
b1100000001111110111011101101101101101100001011001111010110001 $
#43000000
0!
#43500000
1!
b1101010101000110011001001011010 #
b1110011011000010110010110010101101010101000110011010101101100 $
#44000000
0!
#44500000
1!
b11010101011101000100010111111100 #
b1111001011011101010110110000111111010101011101000111100101001011 $
#45000000
0!
#45500000
1!
b100001101101000011011011011110 #
b1111101010000000111101110010100000100001101101000000100001111110 $
#46000000
0!
#46500000
1!
b10001101100110011001100101100100 #
b110000001000110011111001011100110001101100110011000000101110101 $
#47000000
0!
#47500000
1!
b10111101101010100110000001101 #
b11110110110101101111011010000010111101101010100110111100000 $
#48000000
0!
#48500000
1!
b11100111010010000101010010101001 #
b1010000011001111011011110111011100111010010000101000110101111 $
#49000000
0!
#49500000
1!
b11111110011111101011000000000011 #
b111100001000100000100000101010011111110011111101010111000010010 $
#50000000
0!
#50500000
1!
b110100100000010001010111000110 #
b111011011111100000000010100001100110100100000010000100001111001 $
