Simulation-Results/Wishbone/wishbone-test-multiplier.vcd
$comment Generated by Amaranth $end
$date 2023-11-03 04:20:44.385497 $end
$timescale 1 ps $end
$scope module bench $end
$scope module top $end
$var wire 1 ! clk $end
$var wire 1 " rst $end
$var wire 32 # output $end
$var wire 64 $ state $end
$var wire 64 % multiplier $end
$var wire 64 & increment $end
$var wire 32 ' dat_r $end
$var wire 64 ( seed $end
$var wire 32 ) adr $end
$var wire 32 * dat_w $end
$upscope $end
$upscope $end
$enddefinitions $end
#0
$dumpvars
0!
0"
b0 #
b0 $
b101100001010001111101000010110101001100100101010111111100101101 %
b1010000000101011110110111111011110111011001111000000101001111 &
b0 '
b1001000110100010101100111100010011010101111001101111011110000 (
b0 )
b0 *
$end
#500000
b11110111011001111000010001001110 #
b1010000000101011110110111111011110111011001111000000101001111 $
1!
b11110111011001111000010001001110 '
#1000000
0!
#1500000
b10000100101110100110101110110000 #
b1101000001000111011100001000110000100101110100110110100110010 $
1!
b10000100101110100110101110110000 '
#2000000
0!
#2500000
b101110011100101010011110100100 #
b1001101011110110011110000010001000101110011100101000000100011001 $
1!
b101110011100101010011110100100 '
#3000000
0!
#3500000
b1111111001000001000000000011001 #
b110011010110110000110101110100101111111001000001001100110110100 $
1!
b1111111001000001000000000011001 '
#4000000
0!
#4500000
b1100010001001101100100101111110 #
b110001000110101010011001101101001100010001001101101000111110011 $
1!
b1100010001001101100100101111110 '
#5000000
0!
#5500000
b11010000110100001101010111100011 #
b1000111110010100011111110011011011010000110100001111011000000110 $
1!
b11010000110100001101010111100011 '
#6000000
0!
#6500000
b1001111101011011011111101001101 #
b1010001000000100100110111000001001111101011011011101001011101 $
1!
b1001111101011011011111101001101 '
#7000000
0!
#7500000
b111100100001100111000001100000 #
b101101100100001011101111000111000111100100001100110011010101000 $
1!
b111100100001100111000001100000 '
#8000000
0!
#8500000
b11100111101111001111101000110001 #
b111101110011000010110111100000111100111101111001110010011010111 $
1!
b11100111101111001111101000110001 '
#9000000
0!
#9500000
b1101110010001010111100010001110 #
b111001001010010111010010011011101101110010001010110010000011010 $
1!
b1101110010001010111100010001110 '
#10000000
0!
#10500000
b11000001011001001101011101101001 #
b1010001000100000001000101001111011000001011001001111111111100001 $
1!
b11000001011001001101011101101001 '
#11000000
0!
#11500000
b101110101111101010011011010010011001011000011100001101011011100 $
b0 '
b11001011000011100000110110000011 #
b1111010110100110100101000100010 *
1!
b11 )
#12000000
0!
#12500000
b10011010010000010101111011100111 #
b110001110011101010100000110110011010010000010101110111111011 $
b10011101111100001010010110100010 *
1!
b100 )
b111101011010011010010100010001001001100100101010111111100101101 %
#13000000
0!
#13500000
b10111001100110111000110010100111 #
b1111100100111010110001011000110111001100110111000101101101110 $
1!
b111101011010011010010100010001010011101111100001010010110100010 %
#14000000
0!
#14500000
b11011001110100111011001010100001 #
b100000100101000110111111000100011011001110100111010001011101011 $
1!
#15000000
0!
#15500000
b10010101001100011000010101010 #
b1000011010111101101101110000011100010010101001100001000100000101 $
1!
#16000000
0!
#16500000
b11010011001001100110001101110100 #
b111000000110100111001011100011111010011001001100111111101111001 $
1!
#17000000
0!
#17500000
b11100010111010010101111100110 #
b110000011110001001110110000100011100010111010010100011100001 $
1!
#18000000
0!
#18500000
b1000101101001000111010111010010 #
b100010110001111001011111000010101000101101001000110010010110001 $
1!
#19000000
0!
#19500000
b11110001010001010111111110111110 #
b1100011110111101000110010001100011110001010001010100111001010001 $
1!
#20000000
0!
#20500000
b1101001101011010101111110100101 #
b110100011010000111100111000110001101001101011010100010110010001 $
1!
#21000000
0!
#21500000
b10101001110100111111100101000010 #
b1010101001101100101111101001110101001110100111111110000010001 $
1!
#22000000
0!
#22500000
b11001101111100111110001100110111 #
b110100010011000100110000111101011001101111100111111100100010001 $
1!
#23000000
0!
#23500000
b1111000010000110001101001111100 #
b10010110110101110100101010111001111000010000110001001100010001 $
1!
#24000000
0!
#24500000
b10011010000100111011001110110110 #
b1101001010011111100101010011111110011010000100111000011100010001 $
1!
#25000000
0!
#25500000
b11010110000001100010001101111 #
b1010110111111000001100100111001100011010110000001110111100010001 $
1!
#26000000
0!
#26500000
b11001100100001001010000010111011 #
b111111010101000101010100101001111001100100001001011111100010001 $
1!
#27000000
0!
#27500000
b1111111011111100101011101001000 #
b10000101100101101101110011101001111111011111100101111100010001 $
1!
#28000000
0!
#28500000
b10100101100101011000101011100011 #
b101011111001010101100111011100010100101100101011001111100010001 $
1!
#29000000
0!
#29500000
b10111100100011000000001001111000 #
b111010110100110010000100010010110111100100011000001111100010001 $
1!
#30000000
0!
#30500000
b100101000010010001100100001111 #
b1100001111010011001101001001100100101000010010001111100010001 $
1!
#31000000
0!
#31500000
b11010101001000110001011100001100 #
b10000001110100100101100101011111010101001000110001111100010001 $
1!
#32000000
0!
#32500000
b111100101110011000001001011 #
b1011110101101001101000001011000000000111100101110001111100010001 $
1!
#33000000
0!
#33500000
b10111000111111110001111001011010 #
b10100101101011101011100010010111000111111110001111100010001 $
1!
#34000000
0!
#34500000
b100110011110011000111001101 #
b1011101101110011101111001011010100000100110011110001111100010001 $
1!
#35000000
0!
#35500000
b1110011011110000001101010011 #
b111000100001011001001001010001000001110011011110001111100010001 $
1!
#36000000
0!
#36500000
b1000101101011110000111001011100 #
b100010100110110110101011101011001000101101011110001111100010001 $
1!
#37000000
0!
#37500000
b1111100001011110011010011001011 #
b1010111101101001101011000111110101111100001011110001111100010001 $
1!
#38000000
0!
#38500000
b1111001001011110011010010010110 #
b1010111000011110111000000110111001111001001011110001111100010001 $
1!
#39000000
0!
#39500000
b10010011001011110011000010000111 #
b1011111001011010010000011111111110010011001011110001111100010001 $
1!
#40000000
0!
#40500000
b111001011110001001110100011 #
b11001011001010111001011001010000000111001011110001111100010001 $
1!
#41000000
0!
#41500000
b1101111001011110000110101100101 #
b100100111010001110110000100100101101111001011110001111100010001 $
1!
#42000000
0!
#42500000
b111111001011110010001101001110 #
b1111000101111111110110110001110100111111001011110001111100010001 $
1!
#43000000
0!
#43500000
b11011111001011110000011110110101 #
b110001010010011001010100011011011011111001011110001111100010001 $
1!
#44000000
0!
#44500000
b11111001011110011111101101010 #
b1000000111101100101111001000111000011111001011110001111100010001 $
1!
#45000000
0!
#45500000
b10011111001011110000111011101111 #
b100011111111001100101000000010010011111001011110001111100010001 $
1!
#46000000
0!
#46500000
b10011111001011110011110010110101 #
b1000111010010001010011011000000110011111001011110001111100010001 $
1!
#47000000
0!
#47500000
b10011111001011110011101111000101 #
b1001001101010010001111111001101110011111001011110001111100010001 $
1!
#48000000
0!
#48500000
b10011111001011110010100111100100 #
b1101101111010110001101100000111110011111001011110001111100010001 $
1!
#49000000
0!
#49500000
b10011111001011110010000001101101 #
b1111110111110000111011110111011110011111001011110001111100010001 $
1!
#50000000
0!
#50500000
b10011111001011110000011001100111 #
b110010111011010010010110100011110011111001011110001111100010001 $
1!
#51000000
0!
#51500000
b10011111001011110001001110111101 #
b11001010110011011101001110011110011111001011110001111100010001 $
1!
#52000000
0!
#52500000
b10011111001011110010001101101101 #
b1111000111110011111011000010011110011111001011110001111100010001 $
1!
