Simulation-Results/Wishbone/wishbone-test-increment.vcd
$comment Generated by Amaranth $end
$date 2023-11-03 04:26:23.644125 $end
$timescale 1 ps $end
$scope module bench $end
$scope module top $end
$var wire 1 ! clk $end
$var wire 1 " rst $end
$var wire 32 # output $end
$var wire 64 $ state $end
$var wire 64 % multiplier $end
$var wire 64 & increment $end
$var wire 32 ' dat_r $end
$var wire 64 ( seed $end
$var wire 32 ) adr $end
$var wire 32 * dat_w $end
$upscope $end
$upscope $end
$enddefinitions $end
#0
$dumpvars
0!
0"
b0 #
b0 $
b101100001010001111101000010110101001100100101010111111100101101 %
b1010000000101011110110111111011110111011001111000000101001111 &
b0 '
b1001000110100010101100111100010011010101111001101111011110000 (
b0 )
b0 *
$end
#500000
b11110111011001111000010001001110 #
b1010000000101011110110111111011110111011001111000000101001111 $
1!
b11110111011001111000010001001110 '
#1000000
0!
#1500000
b10000100101110100110101110110000 #
b1101000001000111011100001000110000100101110100110110100110010 $
1!
b10000100101110100110101110110000 '
#2000000
0!
#2500000
b101110011100101010011110100100 #
b1001101011110110011110000010001000101110011100101000000100011001 $
1!
b101110011100101010011110100100 '
#3000000
0!
#3500000
b1111111001000001000000000011001 #
b110011010110110000110101110100101111111001000001001100110110100 $
1!
b1111111001000001000000000011001 '
#4000000
0!
#4500000
b1100010001001101100100101111110 #
b110001000110101010011001101101001100010001001101101000111110011 $
1!
b1100010001001101100100101111110 '
#5000000
0!
#5500000
b11010000110100001101010111100011 #
b1000111110010100011111110011011011010000110100001111011000000110 $
1!
b11010000110100001101010111100011 '
#6000000
0!
#6500000
b1001111101011011011111101001101 #
b1010001000000100100110111000001001111101011011011101001011101 $
1!
b1001111101011011011111101001101 '
#7000000
0!
#7500000
b111100100001100111000001100000 #
b101101100100001011101111000111000111100100001100110011010101000 $
1!
b111100100001100111000001100000 '
#8000000
0!
#8500000
b11100111101111001111101000110001 #
b111101110011000010110111100000111100111101111001110010011010111 $
1!
b11100111101111001111101000110001 '
#9000000
0!
#9500000
b1101110010001010111100010001110 #
b111001001010010111010010011011101101110010001010110010000011010 $
1!
b1101110010001010111100010001110 '
#10000000
0!
#10500000
b11000001011001001101011101101001 #
b1010001000100000001000101001111011000001011001001111111111100001 $
1!
b11000001011001001101011101101001 '
#11000000
0!
#11500000
b101110101111101010011011010010011001011000011100001101011011100 $
b0 '
b11001011000011100000110110000011 #
b1110000101101110111100011010100 *
1!
b101 )
#12000000
0!
#12500000
b10011010010000010101111011100111 #
b110001110011101010100000110110011010010000010101110111111011 $
1!
b1001011000110011100010000110100 *
b110 )
b111000010110111011110001101010011110111011001111000000101001111 &
#13000000
0!
#13500000
b10111001100110111001011000001000 #
b111010110011011000011011101000010111001100110111000101101101110 $
1!
b111000010110111011110001101010001001011000110011100010000110100 &
#14000000
0!
#14500000
b11100100101000101110111011010111 #
b1101100101110100000000011101101111100100101000101101100010001010 $
1!
#15000000
0!
#15500000
b1000101011110000111000111010010 #
b1110111010010001111001100011101101000101011110000100101001110110 $
1!
#16000000
0!
#16500000
b10001100110111010111000100111011 #
b101011100100111000011001001001010001100110111010110010011110010 $
1!
#17000000
0!
#17500000
b1111011111100101010011110010110 #
b1101110010100010011111111101011001111011111100101001000010111110 $
1!
#18000000
0!
#18500000
b10001001000010111011101011001 #
b1100001100000010011001001000010001001000010111011110011010 $
1!
#19000000
0!
#19500000
b111100111100110001010011010100 #
b1001001001001001010101000000111100111100111100110011000001000110 $
1!
#20000000
0!
#20500000
b10000111100010011100111000001001 #
b1101001000101101101011101110110010000111100010011111101010000010 $
1!
#21000000
0!
#21500000
b11110111010010110101110001101011 #
b101110110010101010110100010110011110111010010110100101100001110 $
1!
#22000000
0!
#22500000
b11110100101101111100000010110101 #
b1001110001111110011100111111101011110100101101111110011110101010 $
1!
#23000000
0!
#23500000
b11011001010011001111110110010001 #
b1011101000011110001001000000101011011001010011001101001100010110 $
1!
#24000000
0!
#24500000
b11111110001000001100110000001010 #
b1010001100000100010111100100011111110001000001100100100010010 $
1!
#25000000
0!
#25500000
b10011010000101110010000101111010 #
b1010110010010000111001100010101110011010000101110000101001011110 $
1!
#26000000
0!
#26500000
b11000000000000010011010111110000 #
b11010100101011100000001111001011000000000000010011100010111010 $
1!
#27000000
0!
#27500000
b11100010101101110001000010010110 #
b100100111000001111011101111111111100010101101110000001011100110 $
1!
#28000000
0!
#28500000
b11100111100100110101110001110110 #
b1111001101010001011100010001011011100111100100110110000010100010 $
1!
#29000000
0!
#29500000
b1110011001111000011010110110000 #
b1010110001111011101001001010111001110011001111000001111010101110 $
1!
#30000000
0!
#30500000
b11100011001010010100111011111010 #
b1101000011000010000111100101100011100011001010010111101011001010 $
1!
#31000000
0!
#31500000
b111100111000001000000000100101 #
b11111001001110100011000100000000111100111000001000111110110110 $
1!
#32000000
0!
#32500000
b10010110011000110010000010100 #
b1101010010011000110100101010111000010010110011000101000100110010 $
1!
#33000000
0!
#33500000
b1111011001011110000110111001 #
b1101100100011110011000111001000100001111011001011101011111111110 $
1!
#34000000
0!
#34500000
b10100100111111011011010111111111 #
b10000010010111001100100000001110100100111111011011110111011010 $
1!
#35000000
0!
#35500000
b1100100110001010100011111101001 #
b11100110111101100101011011000001100100110001010100100110000110 $
1!
#36000000
0!
#36500000
b1110100001111110010011101000000 #
b11011000001010001010000000100101110100001111110010101011000010 $
1!
#37000000
0!
#37500000
b10001011010101001011101000101001 #
b1111000110011110000010001011100010001011010101001000011001001110 $
1!
#38000000
0!
#38500000
b1010111111000011001110100011 #
b1000100100100100101100100010101100001010111111000001000111101010 $
1!
#39000000
0!
#39500000
b101011011111100010000100000100 #
b1000010101001010100011010000001000101011011111100000000001010110 $
1!
#40000000
0!
#40500000
b101100011110000100001111111010 #
b1111101010100001000101010101011100101100011110000111110101010010 $
1!
#41000000
0!
#41500000
b101011001011010111010011010110 #
b11010100100001010011101111011000101011001011010111100110011110 $
1!
#42000000
0!
#42500000
b100010011000111000001010010101 #
b1000110111110000100111101111000100010011000111000011011111010 $
1!
#43000000
0!
#43500000
b1111110000100001011111010001000 #
b1110101010111010101110111110000101111110000100001000010000100110 $
1!
#44000000
0!
#44500000
b11010111101011011100001010110001 #
b110100101001100000101101000011111010111101011011101100011100010 $
1!
#45000000
0!
#45500000
b11000110110010110000001000100111 #
b111100100101011111110000000011000110110010110000000111101110 $
1!
#46000000
0!
#46500000
b10111010010001000000000010101101 #
b1011011010011100010101100010011010111010010001000010110100001010 $
1!
#47000000
0!
#47500000
b1010001111111010110110000000 #
b10010111011001111011011101101000001010001111111010010011110110 $
1!
#48000000
0!
#48500000
b10110110010011011110101101111100 #
b1001100000111000110001100111111110110110010011011100110101110010 $
1!
#49000000
0!
#49500000
b1011011000011000110001000110101 #
b11010000101111101100100000100001011011000011000110111100111110 $
1!
#50000000
0!
#50500000
b10011110100011110011101110010011 #
b1011111000100101001111101010000010011110100011110001010000011010 $
1!
#51000000
0!
#51500000
b10010000010110110011001111011101 #
b10001101101001111011000100110010000010110110011001011000110 $
1!
#52000000
0!
#52500000
b111110100011111111010010011110 #
b111111001110001010001011001010100111110100011111110101100000010 $
1!
