Simulation-Results/Final+Acks/final+acks+test+increment.vcd
$comment Generated by Amaranth $end
$date 2023-11-04 13:26:44.816153 $end
$timescale 1 ps $end
$scope module bench $end
$scope module top $end
$var wire 1 ! clk $end
$var wire 1 " rst $end
$var wire 32 # output $end
$var wire 64 $ state $end
$var wire 64 % multiplier $end
$var wire 64 & increment $end
$var wire 1 ' ack $end
$var wire 32 ( dat_r $end
$var wire 64 ) seed $end
$var wire 1 * cyc $end
$var wire 1 + stb $end
$var wire 32 , adr $end
$var wire 32 - dat_w $end
$upscope $end
$upscope $end
$enddefinitions $end
#0
$dumpvars
0!
0"
b0 #
b0 $
b101100001010001111101000010110101001100100101010111111100101101 %
b1010000000101011110110111111011110111011001111000000101001111 &
0'
b0 (
b1001000110100010101100111100010011010101111001101111011110000 )
0*
0+
b0 ,
b0 -
$end
#500000
b1010000000101011110110111111011110111011001111000000101001111 $
1!
b11110111011001111000010001001110 #
#1000000
0!
#1500000
b1101000001000111011100001000110000100101110100110110100110010 $
1!
b10000100101110100110101110110000 #
#2000000
0!
#2500000
b1001101011110110011110000010001000101110011100101000000100011001 $
1!
b101110011100101010011110100100 #
#3000000
0!
#3500000
b110011010110110000110101110100101111111001000001001100110110100 $
1!
b1111111001000001000000000011001 #
#4000000
0!
#4500000
b110001000110101010011001101101001100010001001101101000111110011 $
1!
b1100010001001101100100101111110 #
#5000000
0!
#5500000
b1000111110010100011111110011011011010000110100001111011000000110 $
1!
b11010000110100001101010111100011 #
#6000000
0!
#6500000
b1010001000000100100110111000001001111101011011011101001011101 $
1!
b1001111101011011011111101001101 #
#7000000
0!
#7500000
b101101100100001011101111000111000111100100001100110011010101000 $
1!
b111100100001100111000001100000 #
#8000000
0!
#8500000
b111101110011000010110111100000111100111101111001110010011010111 $
1!
b11100111101111001111101000110001 #
#9000000
0!
#9500000
b111001001010010111010010011011101101110010001010110010000011010 $
1!
b1101110010001010111100010001110 #
#10000000
0!
#10500000
b1010001000100000001000101001111011000001011001001111111111100001 $
1!
b11000001011001001101011101101001 #
#11000000
0!
#11500000
1+
b1111111001011110110100110100110 -
1*
b101 ,
b11001011000011100000110110000011 #
1!
b101110101111101010011011010010011001011000011100001101011011100 $
#12000000
0!
#12500000
b10011010010000010101111011100111 #
1'
b111111100101111011010011010011011110111011001111000000101001111 &
b11000101101010111010100011110000 -
b110 ,
b110001110011101010100000110110011010010000010101110111111011 $
1!
#13000000
0!
#13500000
0+
0*
b1000010000010010111111101010001010111001100110111000101101101110 $
b10111001100110111010101001101010 #
b111111100101111011010011010011011000101101010111010100011110000 &
1!
#14000000
0!
#14500000
b111010110110011011101011001100001011111001101001011110101000110 $
0'
1!
b1011111001101001010000000101010 #
#15000000
0!
#15500000
b1101100011010110101110111101101110011101100101001010100000111110 $
1!
b10011101100101001001111000001011 #
#16000000
0!
#16500000
b1001110011010101111001101100110010001100010110011111110111010110 $
1!
b10001100010110011101101011100011 #
#17000000
0!
#17500000
b1000111101111000011100111001011001011011111110000111000110001110 $
1!
b1011011111110000101001001010000 #
#18000000
0!
#18500000
b1011101011001111010011111101101110000010100110001000011100110 $
1!
b1110000010100110001010100110000 #
#19000000
0!
#19500000
b101110100111101100000010101110111010111100001011011101101011110 $
1!
b11010111100001011010110000010001 #
#20000000
0!
#20500000
b111111110011100011000010000110011110101110101110011101001110110 $
1!
b11110101110101110010010110010001 #
#21000000
0!
#21500000
b100000100111100101000010100000111010001001011110111100110101110 $
1!
b11010001001011110110100111100001 #
#22000000
0!
#22500000
b1100010110100000011111010101011010010010101001110101111010000110 $
1!
b10010010101001110110111111101110 #
#23000000
0!
#23500000
b1100011101101001110001011010011101100000111110011100000001111110 $
1!
b1100000111110011111000110100100 #
#24000000
0!
#24500000
b1000001000111101101011101011100101001011001110000000100010110 $
1!
b101001011001110000010100000111 #
#25000000
0!
#25500000
b110011111111101000010011101010000000111101100001111001110 $
1!
b1010000000111101100001110101001 #
#26000000
0!
#26500000
b1010101001110010111001000111000111101000111010100011000100110 $
1!
b111101000111010100001101110101 #
#27000000
0!
#27500000
b1110111010110000011101000010000100101101110111101011110011110 $
1!
b100101101110111101000011101011 #
#28000000
0!
#28500000
b1101000110100110101111101011011011111110100111011111000110110110 $
1!
b11111110100111011100010111011111 #
#29000000
0!
#29500000
b1011110011101111110000101100111110011001010001100110111111101110 $
1!
b10011001010001100100000011010101 #
#30000000
0!
#30500000
b1111100110101101010010010011111001110110000110100110011111000110 $
1!
b1110110000110100101100110101101 #
#31000000
0!
#31500000
b101100110011000110100000011001111010000000010010010000010111110 $
1!
b11010000000010010011011011011000 #
#32000000
0!
#32500000
b1000111100101110010110110110010101010101000110101010110001010110 $
1!
b1010101000110101000111110011101 #
#33000000
0!
#33500000
b110101000010011011101100111110011001100111010001001111000001110 $
1!
b11001100111010001000010010001010 #
#34000000
0!
#34500000
b101110111010010100110100000010001010111000111100110001101100110 $
1!
b1010111000111100111010000010010 #
#35000000
0!
#35500000
b11000001011011000011101100001001001011101100001011101111011110 $
1!
b1001011101100001011011111001000 #
#36000000
0!
#36500000
b1111001101110000100010010000010000000001001001011101000011110110 $
1!
b1001001011110110000101010 #
#37000000
0!
#37500000
b1111101001000010100101000011011001100011001010010110111000101110 $
1!
b1100011001010010101000010111110 #
#38000000
0!
#38500000
b1000010101011100101011000101000010001010011000101101100100000110 $
1!
b10001010011000101111100001010001 #
#39000000
0!
#39500000
b110001100001011011010100111101000111011001100111100100011111110 $
1!
b111011001100111101000000111100 #
#40000000
0!
#40500000
b1000000011000110000001011111011101000010010100011111111110010110 $
1!
b1000010010100011101111110100111 #
#41000000
0!
#41500000
b111111000001000111101101111110001100110001011110000000001001110 $
1!
b1100110001011110001111111001100 #
#42000000
0!
#42500000
b111001111000010110111011101111001100010011110110110100010100110 $
1!
b1100010011110110111010001010110 #
#43000000
0!
#43500000
b1100100000100011010011101010110001111110111001010110100000011110 $
1!
b1111110111001010101101000010110 #
#44000000
0!
#44500000
b110100010001011101011001010000101100100000110111101100000110110 $
1!
b1100100000110111100001000010100 #
#45000000
0!
#45500000
b1010101000010110110101001001001000001110010000010111010001101110 $
1!
b1110010000010101111011101011 #
#46000000
0!
#46500000
b101100100101101010001100110010100101011111101011011001001000110 $
1!
b101011111101011010010000001101 #
#47000000
0!
#47500000
b10001000001100011110111100111101110000010101011100100111110 $
1!
b11101110000010101011100000101110 #
#48000000
0!
#48500000
b111011010010101100000100100111100101000100010011111101011010110 $
1!
b101000100010011110011101110011 #
#49000000
0!
#49500000
b110110001000011001101010001000111011111111010101110101010001110 $
1!
b11011111111010101111000110011110 #
#50000000
0!
#50500000
b101101011111101010000000011001101011000111110010101010111100110 $
1!
b1011000111110010100001101011001 #
#51000000
0!
#51500000
b100010001010011010010111101111001100001111110101101110001011110 $
1!
b1100001111110101100110101001010 #
#52000000
0!
#52500000
b101111011011100111001110100110110011100110011010000011101110110 $
1!
b10011100110011010001000011000001 #
