Simulation-Results/Final+Acks/final+acks+test+multiplier.vcd
$comment Generated by Amaranth $end
$date 2023-11-04 13:32:28.682235 $end
$timescale 1 ps $end
$scope module bench $end
$scope module top $end
$var wire 1 ! clk $end
$var wire 1 " rst $end
$var wire 32 # output $end
$var wire 64 $ state $end
$var wire 64 % multiplier $end
$var wire 64 & increment $end
$var wire 1 ' ack $end
$var wire 32 ( dat_r $end
$var wire 64 ) seed $end
$var wire 1 * cyc $end
$var wire 1 + stb $end
$var wire 32 , adr $end
$var wire 32 - dat_w $end
$upscope $end
$upscope $end
$enddefinitions $end
#0
$dumpvars
0!
0"
b0 #
b0 $
b101100001010001111101000010110101001100100101010111111100101101 %
b1010000000101011110110111111011110111011001111000000101001111 &
0'
b0 (
b1001000110100010101100111100010011010101111001101111011110000 )
0*
0+
b0 ,
b0 -
$end
#500000
1!
b11110111011001111000010001001110 #
b1010000000101011110110111111011110111011001111000000101001111 $
#1000000
0!
#1500000
1!
b10000100101110100110101110110000 #
b1101000001000111011100001000110000100101110100110110100110010 $
#2000000
0!
#2500000
1!
b101110011100101010011110100100 #
b1001101011110110011110000010001000101110011100101000000100011001 $
#3000000
0!
#3500000
1!
b1111111001000001000000000011001 #
b110011010110110000110101110100101111111001000001001100110110100 $
#4000000
0!
#4500000
1!
b1100010001001101100100101111110 #
b110001000110101010011001101101001100010001001101101000111110011 $
#5000000
0!
#5500000
1!
b11010000110100001101010111100011 #
b1000111110010100011111110011011011010000110100001111011000000110 $
#6000000
0!
#6500000
1!
b1001111101011011011111101001101 #
b1010001000000100100110111000001001111101011011011101001011101 $
#7000000
0!
#7500000
1!
b111100100001100111000001100000 #
b101101100100001011101111000111000111100100001100110011010101000 $
#8000000
0!
#8500000
1!
b11100111101111001111101000110001 #
b111101110011000010110111100000111100111101111001110010011010111 $
#9000000
0!
#9500000
1!
b1101110010001010111100010001110 #
b111001001010010111010010011011101101110010001010110010000011010 $
#10000000
0!
#10500000
1!
b11000001011001001101011101101001 #
b1010001000100000001000101001111011000001011001001111111111100001 $
#11000000
0!
#11500000
b11 ,
1*
b101110101111101010011011010010011001011000011100001101011011100 $
b11001011000011100000110110000011 #
1!
1+
b10110001010010011110010011001010 -
#12000000
0!
#12500000
b10011010010000010101111011100111 #
1'
b11011100010000010110101001001000 -
b100 ,
b1011000101001001111001001100101001001100100101010111111100101101 %
b110001110011101010100000110110011010010000010101110111111011 $
1!
#13000000
0!
#13500000
b1011000101001001111001001100101011011100010000010110101001001000 %
0*
b1111000001001000000000110110100110111001100110111000101101101110 $
b10111001100110111011011101111100 #
1!
0+
#14000000
0!
#14500000
1!
b10000001110100000100010000101011 #
b1010010000000010011001010000001110100000100010000111111 $
0'
#15000000
0!
#15500000
1!
b101110001110111111100001000101 #
b1100010100001011101000011011000100101110001110111100100100000111 $
#16000000
0!
#16500000
1!
b11001000001110111101000011001100 #
b1000011000101100010010111110111011001000001110111111000101000111 $
#17000000
0!
#17500000
1!
b1100001001100011111100111000100 #
b1110101000001110101011100010011101100001001100011100001101000111 $
#18000000
0!
#18500000
1!
b10000001010010001110011000001010 #
b1101010100110111100010000100101010000001010010001101001101000111 $
#19000000
0!
#19500000
1!
b100100011001010110101100111001 #
b1110000111111001000001010001000000100100011001010101001101000111 $
#20000000
0!
#20500000
1!
b1010001011010010111111111111110 #
b1011001011100101110110100110110001010001011010010101001101000111 $
#21000000
0!
#21500000
1!
b10100010100010010110110011000001 #
b1111111000011000111001010000000010100010100010010101001101000111 $
#22000000
0!
#22500000
1!
b10110011100010010110100010011010 #
b1110111101110101011000010110111010110011100010010101001101000111 $
#23000000
0!
#23500000
1!
b1111011100010010111111000100100 #
b1011010110001100010001000110110101111011100010010101001101000111 $
#24000000
0!
#24500000
1!
b10111011100010010100000001100101 #
b100110010001010011000101110010110111011100010010101001101000111 $
#25000000
0!
#25500000
1!
b10111011100010010111011101001101 #
b1001000000101000111111110011011110111011100010010101001101000111 $
#26000000
0!
#26500000
1!
b10111011100010010100100111010011 #
b110101001010000111010100100011110111011100010010101001101000111 $
#27000000
0!
#27500000
1!
b10111011100010010111110110111100 #
b1011101111101111101001101100011110111011100010010101001101000111 $
#28000000
0!
#28500000
1!
b10111011100010010100001010001111 #
b100011100100001101010101100011110111011100010010101001101000111 $
#29000000
0!
#29500000
1!
b10111011100010010101101011110001 #
b10011011011010110010101100011110111011100010010101001101000111 $
#30000000
0!
#30500000
1!
b10111011100010010110010111001101 #
b1101101000101011110010101100011110111011100010010101001101000111 $
#31000000
0!
#31500000
1!
b10111011100010010110011111111011 #
b1101001011110011110010101100011110111011100010010101001101000111 $
#32000000
0!
#32500000
1!
b10111011100010010111010110001011 #
b1001101100110011110010101100011110111011100010010101001101000111 $
#33000000
0!
#33500000
1!
b10111011100010010100100000001011 #
b110110100110011110010101100011110111011100010010101001101000111 $
#34000000
0!
#34500000
1!
b10111011100010010100110000001011 #
b111110100110011110010101100011110111011100010010101001101000111 $
#35000000
0!
#35500000
1!
b10111011100010010110110000001011 #
b1111110100110011110010101100011110111011100010010101001101000111 $
