Simulation-Results/Final+Acks/final+acks+test+seed.vcd
$comment Generated by Amaranth $end
$date 2023-11-04 13:18:51.090208 $end
$timescale 1 ps $end
$scope module bench $end
$scope module top $end
$var wire 1 ! clk $end
$var wire 1 " rst $end
$var wire 32 # output $end
$var wire 64 $ state $end
$var wire 64 % multiplier $end
$var wire 64 & increment $end
$var wire 1 ' ack $end
$var wire 32 ( dat_r $end
$var wire 64 ) seed $end
$var wire 1 * cyc $end
$var wire 1 + stb $end
$var wire 32 , adr $end
$var wire 32 - dat_w $end
$upscope $end
$upscope $end
$enddefinitions $end
#0
$dumpvars
0!
0"
b0 #
b0 $
b101100001010001111101000010110101001100100101010111111100101101 %
b1010000000101011110110111111011110111011001111000000101001111 &
0'
b0 (
b1001000110100010101100111100010011010101111001101111011110000 )
0*
0+
b0 ,
b0 -
$end
#500000
1!
b11110111011001111000010001001110 #
b1010000000101011110110111111011110111011001111000000101001111 $
#1000000
0!
#1500000
1!
b10000100101110100110101110110000 #
b1101000001000111011100001000110000100101110100110110100110010 $
#2000000
0!
#2500000
1!
b101110011100101010011110100100 #
b1001101011110110011110000010001000101110011100101000000100011001 $
#3000000
0!
#3500000
1!
b1111111001000001000000000011001 #
b110011010110110000110101110100101111111001000001001100110110100 $
#4000000
0!
#4500000
1!
b1100010001001101100100101111110 #
b110001000110101010011001101101001100010001001101101000111110011 $
#5000000
0!
#5500000
1!
b11010000110100001101010111100011 #
b1000111110010100011111110011011011010000110100001111011000000110 $
#6000000
0!
#6500000
1!
b1001111101011011011111101001101 #
b1010001000000100100110111000001001111101011011011101001011101 $
#7000000
0!
#7500000
1!
b111100100001100111000001100000 #
b101101100100001011101111000111000111100100001100110011010101000 $
#8000000
0!
#8500000
1!
b11100111101111001111101000110001 #
b111101110011000010110111100000111100111101111001110010011010111 $
#9000000
0!
#9500000
1!
b1101110010001010111100010001110 #
b111001001010010111010010011011101101110010001010110010000011010 $
#10000000
0!
#10500000
1!
b11000001011001001101011101101001 #
b1010001000100000001000101001111011000001011001001111111111100001 $
#11000000
0!
#11500000
1!
1+
b11000101000110011001011100001000 -
b1 ,
1*
b101110101111101010011011010010011001011000011100001101011011100 $
b11001011000011100000110110000011 #
#12000000
0!
#12500000
b10110000000100001101111101111110 -
b10 ,
b110001110011101010100000110110011010010000010101110111111011 $
b10011010010000010101111011100111 #
1!
b1100010100011001100101110000100010011010101111001101111011110000 )
1'
#13000000
0!
#13500000
1!
b1100010100011001100101110000100010110000000100001101111101111110 )
0+
0*
b1100011101001000100000111101010111001100110111000101101101110 $
b10111001100110111000110101010100 #
#14000000
0!
#14500000
1!
b10010000111100001010111111001010 #
b1110100110111100110100100110100010010000111100001001010110100101 $
0'
#15000000
0!
#15500000
1!
b11100000111101111010011011110111 #
b11001010011100101100100011110011100000111101111010101001010000 $
#16000000
0!
#16500000
1!
b1000000111111100000000110000111 #
b1000001101100010101010101001001101000000111111100010000101011111 $
#17000000
0!
#17500000
1!
b10110111011001011111001100011 #
b1111100110000110001101000010010000010110111011001000000000000010 $
#18000000
0!
#18500000
1!
b1101011101001001111001000001001 #
b11011010000000100000110011011101101011101001001111111110101001 $
#19000000
0!
#19500000
1!
b10110111100110100101001101000000 #
b110100100010010101100100100011110110111100110100100100100000100 $
#20000000
0!
#20500000
1!
b1110111000100110111100010111101 #
b1010111011111010101101100101110101110111000100110101001100000011 $
#21000000
0!
#21500000
1!
b10110000101110101011101000100111 #
b1011111111000111011001100110101010110000101110101001010111010110 $
#22000000
0!
#22500000
1!
b1010110000101110011011001011101 #
b1101111011000011111110011001111101010110000101110000000111101101 $
#23000000
0!
#23500000
1!
b11111110010110000110011011100110 #
b11000001111000100100101101010111111110010110000110101011111000 $
#24000000
0!
#24500000
1!
b1101100010110110100100111100010 #
b111110000010101111010110001101001101100010110110101011011100111 $
#25000000
0!
#25500000
1!
b1111100000001010111110111101011 #
b111010000000111100011000111011001111100000001010110000011101010 $
#26000000
0!
#26500000
1!
b1001111100111111010101100111011 #
b10110100101010110011001110001001001111100111111010000001110001 $
#27000000
0!
#27500000
1!
b10100110100111101111111111101 #
b110111101000111011010000010111000010100110100111100010000101100 $
#28000000
0!
#28500000
1!
b11101100100011101101010111010011 #
b1001101100010000100010010011111101100100011101101000100001011 $
#29000000
0!
#29500000
1!
b1010101100111011001001110111010 #
b1001101000010000100111011111110001010101100111011011010100111110 $
#30000000
0!
#30500000
1!
b100110001000000000110110011001 #
b100101010110000000010011101001000100110001000000001111100110101 $
#31000000
0!
#31500000
1!
b10000000011000010100101111001000 #
b110110100001001100001010000010000000011000010100100010100000 $
#32000000
0!
#32500000
1!
b10010000101010001000111101010010 #
b1010100011110100100001011011010010010000101010001010010101101111 $
#33000000
0!
#33500000
1!
b1001100101110011010110110100110 #
b10110111010001101100111100100001001100101110011010011011010010 $
#34000000
0!
#34500000
1!
b11111110000001100010100100011001 #
b1010110010000010101101000100001011111110000001100000001000111001 $
#35000000
0!
#35500000
1!
b11010000101111010000001011010110 #
b1011101000001001110000010111011111010000101111010010110001010100 $
#36000000
0!
#36500000
1!
b111110100010011101010001110011 #
b1011000110000000011100000010010000111110100010011111100000010011 $
#37000000
0!
#37500000
1!
b1101110110010001010101101000000 #
b1000101110011010010000000010111001101110110010001000100110100110 $
#38000000
0!
#38500000
1!
b1010010100011110010110100001010 #
b1000000111011100001110100110000101010010100011110000110101111101 $
#39000000
0!
#39500000
1!
b1100111111111101110101101010001 #
b10000001100111000011101100110001100111111111101110001101001000 $
#40000000
0!
#40500000
1!
b1011010110111100010100111010101 #
b1010010001001010000111000000001011010110111100010110011110111 $
#41000000
0!
#41500000
1!
b10101000100001101111001101100010 #
b101101100010001100100011011110101000100001101111000110111010 $
#42000000
0!
#42500000
1!
b1110010010011010100100001100100 #
b11010110010110110101111110001001110010010011010100010100000001 $
#43000000
0!
#43500000
1!
b11011001110011010010100101111110 #
b10000000001001010100011010001111011001110011010010000101111100 $
#44000000
0!
#44500000
1!
b1010001001111101100100011000010 #
b1000001101100100110110110111101001010001001111101110100000011011 $
#45000000
0!
#45500000
1!
b10010000010100101011110101111111 #
b11100111000101001111011001000110010000010100101011001100001110 $
#46000000
0!
#46500000
1!
b10111011111010101101111001011110 #
b1100101001101110111000110110111010111011111010101110110011000101 $
#47000000
0!
#47500000
1!
b11010101110100011100010100001000 #
b111111111100000111001011101011011010101110100011101101011110000 $
#48000000
0!
#48500000
1!
b1010110100110000000111011011001 #
b111010011000011100101010100101010110100110000000110101111111 $
#49000000
0!
#49500000
1!
b101101101111101111011100001101 #
b101101010111110100110110000110100101101101111101110000110100010 $
#50000000
0!
#50500000
1!
b11111001011101011101111101101 #
b1100110010010000101000110001000100011111001011101000100011001001 $
#51000000
0!
#51500000
1!
b11010001011011100111110011001001 #
b1111110110110111001110011111111111010001011011100100001110100100 $
#52000000
0!
#52500000
1!
b10001001110010111111110010010111 #
b1111011011010000011010110111001010001001110010111100000100100011 $
